El ABC de las funciones
…
El dataset starwars proviene del paquete dplyr.

Mostrar código

starwars %>%
  select(name:mass, gender, species) %>%
  mutate(
    type = case_when(
      height > 200 | mass > 200 ~ "large",
      species == "Droid" ~ "robot",
      .default = "other"
    )
  )

# A tibble: 87 × 6
   name               height  mass gender    species type 
   <chr>               <int> <dbl> <chr>     <chr>   <chr>
 1 Luke Skywalker        172    77 masculine Human   other
 2 C-3PO                 167    75 masculine Droid   robot
 3 R2-D2                  96    32 masculine Droid   robot
 4 Darth Vader           202   136 masculine Human   large
 5 Leia Organa           150    49 feminine  Human   other
 6 Owen Lars             178   120 masculine Human   other
 7 Beru Whitesun Lars    165    75 feminine  Human   other
 8 R5-D4                  97    32 masculine Droid   robot
 9 Biggs Darklighter     183    84 masculine Human   other
10 Obi-Wan Kenobi        182    77 masculine Human   other
# ℹ 77 more rows
…
